Intro_to_ShortRead
…
# only first 4 rows are ATCG
nucByCycle <- t(abc[1:4,])

# convert to tibble
library(dplyr)
nucByCycle <- nucByCycle %>% as_tibble() %>%mutate(cycle=1:50) # add circle number
nucByCycle

## # A tibble: 50 x 5
##        A     C     G     T cycle
##    <int> <int> <int> <int> <int>
##  1     1     0     1     3     1
##  2     1     1     1     2     2
##  3     1     1     0     3     3
##  4     0     2     2     1     4
##  5     0     2     2     1     5
##  6     1     0     3     1     6
##  7     1     2     2     0     7
##  8     2     0     2     1     8
##  9     0     2     2     1     9
## 10     2     1     1     1    10
## #  with 40 more rows
…
